<?xml version="1.0" encoding="utf-8"?>
<!-- Generator: Adobe Illustrator 21.0.2, SVG Export Plug-In . SVG Version: 6.00 Build 0)  -->
<svg version="1.1" id="Layer_1" xmlns="http://www.w3.org/2000/svg" xmlns:xlink="http://www.w3.org/1999/xlink" x="0px" y="0px"
	 width="51px" height="53px" viewBox="0 0 51 53" style="enable-background:new 0 0 51 53;" xml:space="preserve">
<style type="text/css">
	.st0{opacity:0.7;}
	.st1{fill:#417505;}
</style>
<title>EF170D47-F4D8-44D6-9E33-CB670FE8C073</title>
<desc>Created with sketchtool.</desc>
<g id="Desktop-Top-Progress-Bar" class="st0">
	<g id="Pre-07" transform="translate(-1089.000000, -509.000000)">
		<g id="Step-0-V1" transform="translate(0.000000, 472.000000)">
			<g id="Product-3" transform="translate(948.000000, 0.000000)">
				<polygon id="Page-1" class="st1" points="166.5,37 141,48.1 141,78.8 166.5,90 191.9,78.8 191.9,48.2 182.3,43.9 156.9,55 
					156.8,64.3 150.7,61.7 150.7,52.4 176.1,41.2 				"/>
			</g>
		</g>
	</g>
</g>
</svg>
