<?xml version="1.0" encoding="UTF-8"?>
<svg width="60px" height="39px" viewBox="0 0 60 39" version="1.1" xmlns="http://www.w3.org/2000/svg" xmlns:xlink="http://www.w3.org/1999/xlink">
    <!-- Generator: sketchtool 42 (36781) - http://www.bohemiancoding.com/sketch -->
    <title>88071A17-1C12-4357-A89E-2E06340C087D</title>
    <desc>Created with sketchtool.</desc>
    <defs></defs>
    <g id="Desktop" stroke="none" stroke-width="1" fill="none" fill-rule="evenodd">
        <g id="Pre-01" transform="translate(-501.000000, -524.000000)" fill="#DDA750">
            <g id="Block-1" transform="translate(0.000000, 472.000000)">
                <g id="Box-1" transform="translate(282.000000, 0.000000)">
                    <path d="M269.344828,70.5710345 L271.438621,70.5710345 C275.37931,70.5710345 278.582759,67.3668966 278.582759,63.4275862 C278.582759,59.4868966 275.375172,56.2765517 271.438621,56.2765517 L269.654483,56.2765517 L269.654483,53.56 C269.654483,52.697931 268.951724,52 268.093103,52 L223.925517,52 C223.062069,52 222.364828,52.697931 222.364828,53.56 L222.364828,66.7827586 C222.364828,75.5551724 227.172414,83.2248276 234.285517,87.3041379 L220.561379,87.3041379 C219.698621,87.3041379 219,88.0048276 219,88.8634483 C219,89.7262069 219.698621,90.4275862 220.561379,90.4275862 L273.213793,90.4275862 C274.076552,90.4275862 274.775172,89.7262069 274.775172,88.8662069 C274.775172,88.0048276 274.076552,87.3068966 273.213793,87.3068966 L257.728966,87.3068966 C263.8,83.8241379 268.183448,77.7351724 269.344828,70.5710345 L269.344828,70.5710345 Z M271.433793,59.3993103 C273.654483,59.3993103 275.456552,61.2034483 275.456552,63.4234483 C275.456552,65.642069 273.654483,67.4462069 271.433793,67.4462069 L269.650345,67.4462069 L269.650345,59.3965517 L271.433793,59.3965517 L271.433793,59.3993103 Z M233.497931,52.2751724 L233.497931,58.3186207 L230.531724,60.4393103 C230.12069,60.7324138 229.877931,61.2075862 229.877931,61.7096552 L229.877931,70.0689655 C229.877931,70.9317241 230.575172,71.6296552 231.437931,71.6296552 L238.676552,71.6296552 C239.53931,71.6296552 240.236552,70.9289655 240.236552,70.0689655 L240.236552,61.7131034 C240.236552,61.2075862 239.994483,60.7365517 239.586207,60.4427586 L236.622069,58.3227586 L236.622069,52.2793103 L233.497931,52.2751724 Z" id="Icon"></path>
                </g>
            </g>
        </g>
    </g>
</svg>